// --------------------------------
// Hook functions:
// --------------------------------

// GetPressedKeys mutator hook
void MacroBot_GetPressedKeys(entity this)
{
	// only execute for bots
	if(clienttype(this) != CLIENTTYPE_BOT || this.scale <= 0)
		return;

	// apply size based movement logics
	// the movement keys changed here are reset by the core game code and overwritten when needed
	if(!IS_DEAD(this) && !IS_PLAYER(this.aiment) && !this.vehicle && vlen(this.velocity) > autocvar_bot_ai_macro_movement_speed)
	{
		// if we're small enough always keep jumping, if we're large enough always keep crouching
		if(autocvar_bot_ai_macro_movement_scale_min && this.scale && this.scale < autocvar_bot_ai_macro_movement_scale_min)
			PHYS_INPUT_BUTTON_JUMP(this) = true;
		else if(autocvar_bot_ai_macro_movement_scale_max && this.scale && this.scale > autocvar_bot_ai_macro_movement_scale_max)
			PHYS_INPUT_BUTTON_CROUCH(this) = true;
	}
}
